-72 -16 -64 -64 -8 -32 688
992
992
232 -24 720
-80 -64 -80 -32 704
32 -16 -40 -32 -80 752
16 -64 -56 -56 -80 680
16 -56 72 -8 808
80 -56 840
32 -80 864
-80 8 -72 808
-72 -64 -16 -8 -80 72 -72 552
-32 -64 880
-32 -32 -32 -48 -80 -40 680
992
40 -48 888
32 -8 24 -56 840
-16 -48 -72 -56 -56 -32 -72 -24 552
-48 -80 -64 776
-80 80 -8 800
992
992
144 -40 792
96 -32 848
8 -64 -16 64 -32 -32 728
