22

11
6
11
-1
6
14
15
12
-5
18
16

6
16
23
16
21
-3
-3
7
26
9
17
-7
11

1
4
14
8
9
-2
29
18

9
5
21
2
6
1
5
4
-7
7
8
-5
23

13
3
17
23
-2
29
-1

14
27
7
-3
27
9
-2

15
12
13
13
12
-1
18
25
-1
-1
-1

7
25
18
1
-4
9
-1

25
7
7
12
6
16
11
-2
3
18
-3
5
-3
9
7
1
-6
6

9
1
1
4
15
1
21
-6
-2
8
34
-7
27
9

7
1
14
22
6
8
16

11
9
6
6
-2
-4
16
28

1
7
28
15
3
-1
14
16
2
8
-4
-5

16
1
1
12
7
8
-1
-1
-1
-2
9
8
14
-3

12
8
22
-1
5
13
-1
6
9
11
23
-2
5

4
11
14
9
24
15
-5
29

7
18
7
-1
-1
-1

21
2
18
8
4
27
7
-7
2
27

12
2
3
13
49
9
-6
7
7
1
1
-8
4

8
1
4
1
3
-2
8
2
9
3
14
-9
26
6
23

18
8
18
22
6
1
7
-5
-4
-2

23
8
-2
8
8
-1
14
-5
19
28
13
-6
