-48 936
992
80 -80 -16 792
992
-64 128 -48 -56 664
-64 -8 72 -64 752
-24 -40 48 -40 -80 720
-80 904
-80 904
88 -72 -40 -24 736
-32 -48 896
-24 -8 944
-24 -16 -64 864
-16 32 -80 -72 -48 -64 -40 584
-80 -72 -8 -80 -24 -16 664
-16 -8 952
992
-72 -16 888
16 -16 944
-80 -8 -48 -24 800
-32 40 -40 128 -40 672
-48 168 -64 688
-24 960
176 -64 -80 648
992
56 -16 40 -40 808
-40 144 -24 -8 744
56 -64 856
