21

4
10
6
-1
-2
6
-2
-1

9
9
5
4
1
-2
-3
-3
-2
3
7
5
3
10
-2
-2
-1
-2
-2

5
7
2
4
1
4
9
-5
-3

2
1
5
4
-4
-3

2
2
4
2
8
-5
-1
-1
-2
7
2
1
10
9
-4

2
10
5
2
9
-1
-4
-1
-2
-1
1

1
9
7
4
4
9
5
-2
-4
-3

5
10
2
3
-4
-2

10
4
8
-1

2
5
8
-1
-2
-1
2
4
8
-3

1
10
10
8
7
-3
-1
9
10
2
8
-1
-2
-5
-3
-2
-2
-1

5
1
-1
-1
6

9
5
4
1
10
-2
-2
-1
-1
10
-1
-1

1
10
5
5
-1
-1
-2

3
3
1
8
2
-3
-4
-2
3
5
-4
-1

8
10
8
9
9
-2
-4
-2
-2
9
6
3
2
5
-3
-3
-2
-3
-2
-1

10
2
8
5

10
7
2
-2
-1
2
8
2
7

8
5
-2

4
3
5
3

6
4
9
-1
1
8
-4
