992
168 -40 768
-40 -56 16 -32 8 -32 -72 680
-16 -8 952
-16 -16 -32 56 -80 -72 672
-8 976
-8 72 -56 72 -72 -40 624
-40 80 -16 832
80 -32 -64 792
-16 -32 928
992
-48 936
992
96 -40 840
24 -24 8 -64 840
992
-80 -16 -64 -40 760
-16 -64 -16 24 -16 -56 752
-64 920
-32 -24 -40 -24 840
-8 32 -32 -72 816
