20

1
-1
1
-1
50
-1
50
50
-2

4
-1
4
-1
5
5
5
5
5
-3
-3
-2

6
-1
6
-1
4
3
2
1
-3
-1
5

6
-1
6
-1
6
5
4
3
-2
-1
4
2
-4
8

6
-1
6
-1
1
1
1
1
1
1
-1
-1
-1
-1
-1
-1

8
-1
8
-1
4
4
4
4

6
-1
6
-1
3
2
1
6
7
-2
-1
-1

6
-1
5
-1
2
1
3
4
5
6
4
-3
-4
-2
-1

3
-1
5
-1
10
10
10

8
-1
5
-1
15
15
15
15
15
-2
-3

9
-1
3
-1
3
3
3
33
-1
-1
-1

9
-1
3
-1
7
8
9
2
1

9
-1
13
-1
6
7
8
9
1
2
3
4
5

12
13
14
15
16
-2
-3

1
2
3
98
-1
-1

4
5
6
1
2
3

1
5
8
34
2
-1
-2

1
2
3

15
16
13

1
2
3
4
5
23
24
